%YAML 1.1
%TAG !u! tag:unity3d.com,2011:
--- !u!114 &11400000
MonoBehaviour:
  m_ObjectHideFlags: 0
  m_CorrespondingSourceObject: {fileID: 0}
  m_PrefabInstance: {fileID: 0}
  m_PrefabAsset: {fileID: 0}
  m_GameObject: {fileID: 0}
  m_Enabled: 1
  m_EditorHideFlags: 0
  m_Script: {fileID: 11500000, guid: 2ec995e51a6e251468d2a3fd8a686257, type: 3}
  m_Name: UniversalRenderPipelineGlobalSettings
  m_EditorClassIdentifier: 
  m_Settings:
    m_SettingsList: []
    m_RuntimeSettings: []
  m_AssetVersion: 5
  m_DefaultVolumeProfile: {fileID: 11400000, guid: 0b9e41d2aae5af64aaca79e29b158d3e,
    type: 2}
  m_RenderingLayerNames:
  - Light Layer default
  - Light Layer 1
  - Light Layer 2
  - Light Layer 3
  - Light Layer 4
  - Light Layer 5
  - Light Layer 6
  - Light Layer 7
  m_ValidRenderingLayers: 255
  lightLayerName0: Light Layer default
  lightLayerName1: Light Layer 1
  lightLayerName2: Light Layer 2
  lightLayerName3: Light Layer 3
  lightLayerName4: Light Layer 4
  lightLayerName5: Light Layer 5
  lightLayerName6: Light Layer 6
  lightLayerName7: Light Layer 7
  apvScenesData:
    m_ObsoleteSerializedBakingSets: []
    sceneToBakingSet:
      m_Keys: []
      m_Values: []
    bakingSets: []
    sceneBounds:
      m_Keys: []
      m_Values: []
    hasProbeVolumes:
      m_Keys: []
      m_Values: 
  m_ShaderStrippingSetting:
    m_Version: 0
    m_ExportShaderVariants: 1
    m_ShaderVariantLogLevel: 0
    m_StripRuntimeDebugShaders: 1
  m_URPShaderStrippingSetting:
    m_Version: 0
    m_StripUnusedPostProcessingVariants: 1
    m_StripUnusedVariants: 1
    m_StripScreenCoordOverrideVariants: 1
  m_ShaderVariantLogLevel: 0
  m_ExportShaderVariants: 1
  m_StripDebugVariants: 1
  m_StripUnusedPostProcessingVariants: 1
  m_StripUnusedVariants: 1
  m_StripScreenCoordOverrideVariants: 1
  supportRuntimeDebugDisplay: 0
  references:
    version: 2
    RefIds: []
